# g4beamline profile
#Z N meanX sigmaX meanY sigmaY emitX emitY emitTrans betaX betaY betaTrans alphaX alphaY alphaTrans meanP
#mm - mm mm mm mm mm-rad mm-rad mm-rad mm mm mm - - - MeV/c
0.0 9999969 0.001 16.997 -0.009 23.999 0.5201 0.7343 0.618 124.5 248.1 186.3 0.000474 0.0002668 0.0003704 28.5
100.0 9994242 -0.006 20.541 0.156 26.631 0.5202 0.7344 0.6181 181.8 305.5 243.6 -0.5706 -0.5715 -0.5711 28.5
200.0 9988625 -0.012 28.660 0.632 33.310 0.5206 0.7346 0.6184 353.6 477.7 415.7 -1.14 -1.143 -1.142 28.5
300.0 9983034 -0.019 38.555 1.362 42.164 0.5211 0.7351 0.6189 639.4 764.7 702.1 -1.706 -1.718 -1.712 28.5
400.0 9553139 -0.034 47.504 1.726 48.927 0.5037 0.6892 0.5891 1020 1082 1051 -2.244 -2.219 -2.231 28.5
500.0 9078421 -0.046 56.114 1.940 56.739 0.4898 0.6637 0.5701 1472 1505 1489 -2.604 -2.819 -2.711 28.5
600.0 7095079 -0.064 57.946 0.833 57.548 0.4414 0.5734 0.503 1782 1758 1770 -2.164 -3.506 -2.835 28.5
700.0 5500609 -0.054 58.703 0.137 58.646 0.4161 0.4828 0.4482 2053 2049 2051 -0.8352 -4.769 -2.802 28.5
800.0 4322113 -0.035 58.691 -0.069 58.841 0.4173 0.3838 0.4002 2294 2306 2300 0.9205 -5.854 -2.467 28.5
900.0 3492934 -0.039 56.035 -0.086 59.648 0.4292 0.3047 0.3616 2314 2622 2468 2.249 -6.287 -2.019 28.5
1000.0 3023503 -0.043 51.741 -0.023 62.751 0.4404 0.2615 0.3394 2111 3105 2608 1.982 -5.562 -1.79 28.5
1100.0 3021788 -0.041 48.362 0.098 72.108 0.4418 0.2636 0.3413 1843 4097 2970 0.6012 -3.909 -1.654 28.5
1200.0 3014778 -0.044 48.834 0.194 75.820 0.4409 0.2633 0.3407 1886 4547 3216 -1.042 -0.3655 -0.7039 28.5
1300.0 2997592 -0.046 53.420 0.263 73.168 0.4388 0.2626 0.3395 2258 4236 3247 -2.852 2.993 0.07055 28.5
1400.0 2976554 -0.054 61.112 0.325 66.066 0.4364 0.2654 0.3403 2936 3432 3184 -4.359 4.251 -0.05408 28.5
1500.0 2945323 -0.062 69.257 0.396 57.731 0.4318 0.2701 0.3415 3760 2613 3187 -4.675 3.624 -0.5255 28.49
1600.0 2902981 -0.058 75.018 0.475 50.679 0.4219 0.2729 0.3393 4454 2032 3243 -3.599 2.504 -0.5477 28.49
1700.0 2868313 -0.072 77.971 0.572 45.603 0.413 0.2745 0.3367 4860 1663 3261 -1.842 1.556 -0.143 28.49
1800.0 2852722 -0.067 78.910 0.694 42.220 0.4088 0.2751 0.3353 5002 1432 3217 -0.3007 0.9308 0.3151 28.49
1900.0 2581043 -0.016 67.782 0.851 41.289 0.3583 0.2811 0.3173 3899 1447 2673 0.459 0.6878 0.5734 28.48
2000.0 2561532 -0.016 66.109 0.996 39.614 0.354 0.2817 0.3158 3727 1338 2533 0.6391 0.5314 0.5853 28.48
2100.0 2558782 -0.017 64.884 1.148 38.165 0.3535 0.2817 0.3156 3593 1243 2418 0.6604 0.4286 0.5445 28.47
2200.0 2555961 -0.015 63.647 1.300 36.955 0.353 0.2817 0.3153 3460 1166 2313 0.636 0.3426 0.4893 28.47
2300.0 2552993 -0.022 62.445 1.452 35.975 0.3524 0.2816 0.315 3333 1106 2220 0.5961 0.2621 0.4291 28.47
2400.0 2549827 -0.020 61.299 1.604 35.231 0.3518 0.2815 0.3147 3216 1062 2139 0.5506 0.1834 0.367 28.47
2500.0 2546506 -0.025 60.215 1.755 34.735 0.3511 0.2814 0.3143 3107 1034 2070 0.5043 0.1051 0.3047 28.47
2600.0 2542865 -0.029 59.196 1.904 34.494 0.3504 0.2812 0.3139 3007 1021 2014 0.458 0.02666 0.2423 28.47
2700.0 2538853 -0.045 58.238 2.052 34.511 0.3496 0.2809 0.3133 2915 1024 1969 0.4121 -0.05162 0.1802 28.47
2800.0 2536200 -0.147 57.413 2.202 34.810 0.3492 0.2808 0.3131 2835 1042 1939 0.3645 -0.1306 0.1169 28.47
2900.0 2532319 -0.582 56.737 2.333 35.211 0.3494 0.2795 0.3125 2774 1068 1921 0.3167 -0.2078 0.05447 28.47
3000.0 2529664 -2.388 56.142 2.480 35.954 0.3495 0.279 0.3122 2717 1114 1915 0.2682 -0.2859 -0.008877 28.47
3100.0 2525559 -7.847 55.080 2.619 36.887 0.3548 0.2779 0.314 2594 1163 1878 0.3565 -0.3623 -0.002912 28.47
3200.0 2522266 -3.921 54.522 2.745 37.951 0.3576 0.2769 0.3146 2544 1232 1888 0.5074 -0.4328 0.03729 28.47
3300.0 2517485 -7.953 53.491 2.861 39.199 0.3579 0.2755 0.314 2445 1313 1879 0.4526 -0.5057 -0.02656 28.47
3400.0 2511144 -20.792 52.563 2.968 40.539 0.3585 0.2735 0.3131 2341 1392 1867 0.3896 -0.5757 -0.09305 28.47
3500.0 2503904 -23.358 50.425 3.054 41.826 0.4314 0.2717 0.3423 1959 1348 1654 0.868 -0.5808 0.1436 28.47
3600.0 2494013 -7.935 48.684 3.120 43.152 0.4382 0.2687 0.3431 1847 1451 1649 0.9365 -0.6302 0.1531 28.47
3700.0 2481432 -0.761 46.316 3.172 44.533 0.437 0.2654 0.3406 1695 1567 1631 0.809 -0.6836 0.06269 28.47
3800.0 2466272 -2.016 44.246 3.209 45.876 0.4371 0.2617 0.3382 1556 1673 1614 0.6954 -0.7315 -0.01806 28.48
3900.0 2448266 2.966 42.249 3.247 47.156 0.4731 0.2577 0.3491 1374 1712 1543 0.6745 -0.7443 -0.03492 28.48
4000.0 2426860 6.781 40.313 3.263 48.361 0.4707 0.2533 0.3453 1266 1823 1545 0.5066 -0.7827 -0.1381 28.48
4100.0 2403526 8.900 38.932 3.258 49.515 0.47 0.2487 0.3419 1193 1930 1562 0.3439 -0.8151 -0.2356 28.48
4200.0 2377684 10.606 38.063 3.228 50.583 0.4692 0.244 0.3383 1153 2036 1594 0.1757 -0.838 -0.3312 28.49
4300.0 2349857 12.250 37.756 3.215 51.564 0.4685 0.2393 0.3348 1146 2138 1642 -0.002389 -0.8434 -0.4229 28.49
4400.0 2319475 13.762 37.817 3.184 52.433 0.4651 0.2345 0.3303 1166 2241 1704 -0.2052 -0.8061 -0.5056 28.49
4500.0 2317815 15.420 38.859 3.253 54.154 0.4648 0.2345 0.3301 1232 2392 1812 -0.4873 -0.644 -0.5656 28.49
4600.0 2300887 17.001 40.499 3.235 54.669 0.4591 0.2326 0.3268 1351 2462 1907 -0.9775 -0.09671 -0.5371 28.49
4700.0 2291127 19.293 44.162 3.132 53.657 0.4566 0.2316 0.3252 1612 2380 1996 -1.823 0.85 -0.4867 28.49
4800.0 2275903 22.226 49.848 2.899 50.310 0.4525 0.2304 0.3229 2065 2103 2084 -3.029 1.757 -0.6364 28.48
4900.0 2250163 25.522 57.146 2.538 44.986 0.4445 0.2291 0.3191 2738 1697 2217 -4.361 2.177 -1.092 28.48
5000.0 2208536 28.359 64.555 2.142 38.887 0.4318 0.2287 0.3142 3547 1287 2417 -4.957 1.944 -1.507 28.46
5100.0 2161339 30.150 70.215 1.790 33.596 0.4185 0.229 0.3096 4271 977.8 2624 -3.917 1.321 -1.298 28.45
5200.0 2132104 31.032 73.285 1.515 30.070 0.4108 0.2294 0.3069 4704 791.9 2748 -1.557 0.6817 -0.4377 28.44
5300.0 2126618 31.150 73.474 1.315 28.452 0.4096 0.2293 0.3065 4737 710.3 2724 0.977 0.1794 0.5782 28.44
5400.0 2125381 30.159 70.588 1.172 28.428 0.4097 0.2294 0.3066 4368 708.4 2538 2.387 -0.1299 1.129 28.44
5500.0 2124171 28.677 66.563 1.048 29.169 0.4098 0.2295 0.3067 3883 745.6 2314 2.227 -0.2064 1.01 28.44
5600.0 2122927 27.547 63.471 0.911 29.800 0.4098 0.2295 0.3067 3532 778.6 2155 1.225 -0.0994 0.5627 28.44
5700.0 2121748 27.179 62.297 0.748 29.838 0.4097 0.2295 0.3066 3405 781 2093 0.06699 0.07697 0.07198 28.44
5800.0 2120032 27.582 63.099 0.564 29.233 0.4094 0.2293 0.3064 3494 750 2122 -0.9419 0.2145 -0.3637 28.44
5900.0 2024734 24.287 61.462 0.393 28.449 0.3865 0.2307 0.2986 3397 727.9 2062 -1.394 0.2654 -0.564 28.4
6000.0 2023582 25.336 64.230 0.186 27.466 0.3865 0.2305 0.2985 3711 678.5 2195 -1.71 0.2131 -0.7487 28.4
6100.0 2022337 26.462 67.290 -0.020 26.741 0.3865 0.2304 0.2984 4074 643.4 2358 -1.908 0.1303 -0.8887 28.4
6200.0 2010487 27.009 70.021 -0.228 26.388 0.3833 0.2304 0.2972 4428 628.9 2529 -2.031 0.04056 -0.9953 28.4
6300.0 1980723 26.794 71.929 -0.432 26.416 0.3766 0.2304 0.2946 4713 635.6 2674 -2.088 -0.05088 -1.069 28.39
6400.0 1942535 26.285 73.380 -0.635 26.803 0.3684 0.2304 0.2913 4958 661.4 2810 -2.117 -0.1441 -1.13 28.38
6500.0 1900443 25.657 74.554 -0.833 27.534 0.3596 0.2303 0.2877 5180 706.5 2943 -2.132 -0.2394 -1.186 28.37
6600.0 1856369 24.934 75.542 -1.041 28.571 0.3505 0.23 0.2839 5388 770.7 3079 -2.141 -0.3362 -1.239 28.36
6700.0 1811755 24.197 76.394 -1.247 29.880 0.3414 0.2298 0.2801 5584 854.3 3219 -2.145 -0.4349 -1.29 28.35
6800.0 1766634 23.455 77.103 -1.443 31.427 0.3324 0.2294 0.2761 5768 958.2 3363 -2.143 -0.5357 -1.339 28.34
6900.0 1720950 22.676 77.675 -1.643 33.159 0.3235 0.2289 0.2721 5939 1082 3511 -2.136 -0.6378 -1.387 28.33
7000.0 1675768 21.937 78.150 -1.845 35.046 0.3147 0.2284 0.2681 6101 1227 3664 -2.127 -0.7413 -1.434 28.33
7100.0 1630856 21.180 78.535 -2.046 37.051 0.3062 0.2277 0.2641 6254 1392 3823 -2.114 -0.846 -1.48 28.32
7200.0 1586479 20.423 78.839 -2.242 39.150 0.2979 0.227 0.26 6399 1578 3989 -2.1 -0.9517 -1.526 28.31
7300.0 1542392 19.680 79.053 -2.432 41.309 0.2898 0.2261 0.256 6536 1785 4160 -2.084 -1.058 -1.571 28.31
7400.0 1498888 18.970 79.197 -2.609 43.504 0.2819 0.2251 0.2519 6665 2011 4338 -2.066 -1.165 -1.615 28.31
7500.0 1455867 18.229 79.296 -2.772 45.698 0.2743 0.2239 0.2478 6791 2256 4523 -2.048 -1.27 -1.659 28.3
7600.0 1413166 17.491 79.337 -2.931 47.870 0.2668 0.2225 0.2436 6914 2517 4716 -2.03 -1.374 -1.702 28.3
7700.0 1370611 16.754 79.327 -3.100 49.981 0.2596 0.2208 0.2394 7035 2793 4914 -2.011 -1.476 -1.744 28.3
7800.0 1328204 16.059 79.248 -3.226 52.030 0.2526 0.2188 0.2351 7150 3082 5116 -1.992 -1.575 -1.784 28.3
7900.0 1286435 15.388 79.171 -3.336 53.978 0.2459 0.2165 0.2307 7271 3380 5326 -1.976 -1.669 -1.822 28.3
8000.0 1244617 14.735 79.046 -3.433 55.813 0.2394 0.2139 0.2263 7391 3685 5538 -1.958 -1.759 -1.859 28.3
8100.0 1203426 14.098 78.910 -3.511 57.553 0.2331 0.2111 0.2218 7513 3997 5755 -1.943 -1.844 -1.894 28.3
8200.0 1163085 13.536 78.772 -3.589 59.194 0.2271 0.2081 0.2174 7640 4314 5977 -1.93 -1.924 -1.927 28.3
8300.0 1122944 13.007 78.599 -3.623 60.717 0.2212 0.205 0.213 7766 4634 6200 -1.92 -1.997 -1.959 28.3
8400.0 1081376 12.460 78.314 -3.668 62.070 0.2153 0.2016 0.2083 7882 4951 6417 -1.931 -2.049 -1.99 28.31
8500.0 1039091 11.957 78.350 -3.660 63.069 0.2102 0.1974 0.2037 8069 5228 6648 -2.093 -1.994 -2.043 28.31
8600.0 1020836 11.936 80.054 -3.719 64.545 0.2088 0.1954 0.202 8496 5523 7009 -2.805 -1.624 -2.215 28.31
8700.0 1001266 12.054 82.664 -3.723 65.204 0.2075 0.1934 0.2003 9130 5681 7405 -4.41 -0.7042 -2.557 28.31
8800.0 980954 12.377 86.780 -3.662 64.645 0.2067 0.1915 0.199 1.012e+04 5618 7870 -6.756 0.5108 -3.122 28.31
8900.0 959793 12.967 92.618 -3.530 62.755 0.2064 0.1897 0.1979 1.158e+04 5316 8448 -9.524 1.626 -3.949 28.31
9000.0 939345 13.739 99.863 -3.376 59.901 0.2059 0.1884 0.1969 1.351e+04 4862 9187 -11.81 2.206 -4.804 28.32
9100.0 913052 14.370 105.542 -3.243 57.211 0.2002 0.1897 0.1949 1.527e+04 4487 9878 -10.97 1.796 -4.589 28.32
9200.0 883530 14.410 107.418 -3.191 55.960 0.1909 0.192 0.1914 1.614e+04 4381 1.026e+04 -5.77 0.3694 -2.701 28.32
9300.0 869748 14.272 107.500 -3.234 56.609 0.189 0.192 0.1905 1.625e+04 4507 1.038e+04 1.435 -1.613 -0.08904 28.32
9400.0 863438 13.765 103.964 -3.388 59.670 0.1953 0.1917 0.1935 1.493e+04 4920 9927 8.105 -3.783 2.161 28.32
9500.0 859666 12.712 96.417 -3.692 65.121 0.2059 0.1939 0.1998 1.24e+04 5655 9026 11.51 -5.678 2.915 28.32
9600.0 858406 11.361 86.830 -4.073 71.928 0.2148 0.201 0.2078 9656 6626 8141 10.75 -6.354 2.198 28.32
9700.0 857663 10.035 77.633 -4.433 78.297 0.2161 0.2067 0.2113 7606 7736 7671 8.226 -5.583 1.321 28.32
9800.0 855888 8.895 70.089 -4.674 82.834 0.2127 0.2071 0.2099 6257 8739 7498 5.84 -3.832 1.004 28.32
9900.0 852170 7.941 64.370 -4.779 84.998 0.2087 0.2043 0.2065 5372 9367 7369 4.009 -1.662 1.174 28.32
10000.0 847428 7.118 60.130 -4.784 85.254 0.2052 0.2002 0.2026 4779 9608 7193 2.812 0.1491 1.481 28.32
10100.0 842124 6.412 56.793 -4.698 84.275 0.2021 0.1966 0.1993 4336 9548 6942 2.254 0.9852 1.62 28.33
10200.0 771660 6.371 55.447 -3.169 69.549 0.1998 0.1637 0.1808 4555 7167 5861 2.318 0.9291 1.623 28.33
10300.0 736855 6.062 53.619 -2.670 63.306 0.2015 0.1511 0.1745 4415 6154 5285 2.311 0.8481 1.579 28.33
10400.0 736377 5.484 50.830 -2.530 62.418 0.2016 0.151 0.1745 3967 5983 4975 2.156 0.8278 1.492 28.33
10500.0 735955 4.902 48.083 -2.335 61.558 0.2027 0.1514 0.1752 3536 5795 4665 1.996 0.8011 1.398 28.33
10600.0 732597 4.385 45.424 -2.131 60.285 0.3371 0.3865 0.361 1507 2654 2080 0.873 0.3606 0.6168 27.88
10700.0 731575 3.811 42.875 -1.803 59.433 0.3295 0.3765 0.3522 1376 2643 2010 0.7878 0.3264 0.5571 27.88
10800.0 730344 3.240 40.510 -1.440 58.634 0.3248 0.3663 0.3449 1254 2627 1941 0.6977 0.2937 0.4957 27.88
10900.0 728946 2.666 38.351 -1.266 57.888 0.3207 0.3588 0.3392 1143 2604 1873 0.6035 0.26 0.4317 27.88
11000.0 727493 2.093 36.429 -1.396 57.212 0.3175 0.3526 0.3346 1045 2578 1812 0.5054 0.2256 0.3655 27.88
11100.0 721405 1.560 34.792 -2.020 55.935 0.314 0.3425 0.3279 972.9 2515 1744 0.4138 0.2011 0.3074 27.88
11200.0 720452 0.986 33.477 -3.576 55.463 0.3134 0.3412 0.327 903 2479 1691 0.3036 0.1586 0.2311 27.88
11300.0 720060 0.408 32.557 -6.018 55.182 0.3136 0.3431 0.328 850.5 2443 1647 0.1892 0.09935 0.1443 27.84
11400.0 677031 0.077 32.430 -6.334 50.061 0.3192 0.3273 0.3232 855.7 2039 1447 0.1005 0.0602 0.08033 27.82
11500.0 674528 -0.506 32.280 -7.027 49.793 0.3194 0.3523 0.3354 816.9 1944 1380 -0.0142 -0.01775 -0.01597 27.81
11600.0 672450 -1.092 32.566 -6.647 49.757 0.3197 0.3862 0.3513 793.9 1853 1324 -0.12 -0.1055 -0.1127 27.82
11700.0 669913 -1.662 33.292 -5.242 49.905 0.3201 0.4259 0.3691 789.8 1775 1282 -0.2165 -0.2043 -0.2104 27.84
11800.0 666180 -2.180 34.430 -2.794 50.231 0.3208 0.468 0.3874 805.4 1714 1260 -0.3036 -0.3157 -0.3097 27.87
11900.0 664610 -2.606 35.936 0.963 51.218 0.3214 0.4956 0.399 852.3 1731 1292 -0.391 -0.4313 -0.4111 27.88
12000.0 656593 -2.805 36.834 6.854 46.569 0.3138 0.3135 0.3134 1140 1823 1482 -0.5777 -0.05619 -0.3169 27.88
12100.0 655512 -2.658 38.627 9.629 46.753 0.3119 0.3126 0.312 1260 1846 1553 -0.6988 -0.09625 -0.3975 27.88
12200.0 640677 -1.792 40.589 10.250 45.872 0.3111 0.3061 0.3083 1408 1799 1603 -0.8444 -0.1019 -0.4732 27.88
12300.0 635223 0.654 42.851 11.520 45.786 0.3168 0.307 0.3109 1555 1776 1666 -1.044 -0.05503 -0.5495 27.88
12400.0 627665 6.283 45.713 12.283 45.448 0.3555 0.3152 0.3311 1656 1637 1646 -1.378 0.0702 -0.6537 27.89
12500.0 603119 7.416 48.513 10.206 42.028 0.3277 0.2999 0.3106 1997 1499 1748 -1.57 0.1995 -0.6852 27.9
12600.0 593957 14.395 50.898 10.929 42.170 0.3511 0.3107 0.3226 2096 1439 1768 -1.619 0.1145 -0.7522 27.91
12700.0 587113 24.803 52.424 11.832 40.410 0.4033 0.2894 0.3358 2116 1257 1686 -0.8317 0.1118 -0.36 27.91
12800.0 583817 9.823 55.673 12.583 40.083 0.4275 0.2883 0.3425 2379 1233 1806 -0.7754 0.05862 -0.3584 27.92
12900.0 580726 6.634 57.310 13.341 40.009 0.4462 0.29 0.3471 2497 1217 1857 -0.9292 0.02169 -0.4538 27.92
13000.0 576041 4.161 56.470 14.237 37.980 0.4565 0.2762 0.3457 2430 1099 1764 -0.9282 0.1521 -0.3881 27.91
13100.0 572033 1.038 58.221 14.869 36.621 0.4451 0.2704 0.3399 2630 1041 1836 -1.327 0.2212 -0.5529 27.91
13200.0 566255 0.559 60.340 15.350 35.105 0.4345 0.2624 0.3327 2888 977.4 1933 -1.55 0.223 -0.6635 27.91
13300.0 563750 1.130 63.166 15.784 33.681 0.427 0.2546 0.326 3229 918 2073 -1.74 0.1897 -0.7752 27.92
13400.0 311247 -0.156 71.761 -6.146 24.348 0.4741 0.18 0.2896 4709 542.1 2625 -2.45 0.03025 -1.21 28.02
13500.0 112206 -1.649 51.115 2.321 15.257 0.353 0.1132 0.1941 3568 317.9 1943 -1.408 -0.1223 -0.7651 28.03
13600.0 112119 -0.477 53.536 3.160 15.639 0.354 0.1099 0.1919 3960 337.9 2149 -1.57 -0.2281 -0.8988 28.03
13700.0 112058 0.813 55.250 4.007 16.237 0.3516 0.105 0.1876 4312 372.4 2342 -1.733 -0.334 -1.034 28.04
13800.0 111995 2.094 58.688 4.818 17.732 0.3707 0.1037 0.1912 4775 435.9 2606 -1.987 -0.4155 -1.201 28.04
13900.0 111869 3.311 61.014 5.544 18.827 0.4174 0.09727 0.1966 5017 477.7 2747 -2.397 -0.4219 -1.409 28.04
14000.0 111798 4.768 65.399 6.132 20.401 0.5511 0.09468 0.2234 5073 493.6 2783 -2.91 -0.321 -1.615 28.04
14100.0 111733 6.439 70.737 6.507 21.555 0.7507 0.09275 0.2587 5121 475.5 2798 -3.502 -0.1886 -1.845 28.04
14200.0 111675 8.372 77.196 6.663 22.239 0.9679 0.09259 0.2935 5370 445.7 2908 -4.166 -0.08663 -2.126 28.04
14300.0 111615 10.545 83.366 6.682 22.511 1.028 0.09255 0.3027 6069 442.6 3256 -4.786 -0.0713 -2.429 28.04
14400.0 111545 12.602 88.995 6.748 23.028 0.7699 0.09288 0.2626 7983 534.5 4259 -4.945 -0.2171 -2.581 28.04
14500.0 111480 14.053 93.237 7.083 24.410 0.3263 0.09962 0.1767 1.304e+04 893.8 6967 -3.929 -0.7511 -2.34 28.04
14600.0 111389 14.582 94.340 7.833 26.958 0.5732 0.1149 0.2421 9745 795.7 5270 0.4285 -1.019 -0.2953 28.04
14700.0 111288 14.176 91.817 9.013 31.068 1.102 0.1358 0.3587 6218 711.9 3465 2.083 -1.117 0.4829 28.04
14800.0 111178 13.085 88.846 10.529 36.460 1.387 0.1513 0.4206 4958 834.9 2896 2.203 -1.298 0.4525 28.04
14900.0 111113 11.953 84.697 12.136 41.759 1.272 0.1317 0.3779 5018 1220 3119 1.885 -1.535 0.1752 28.04
15000.0 111053 11.114 83.049 13.404 46.306 0.997 0.11 0.3135 5827 1811 3819 1.204 -1.492 -0.1441 28.04
15100.0 110994 10.817 80.752 14.155 49.222 0.6748 0.09287 0.2459 7032 2613 4823 0.4088 -1.052 -0.3217 28.04
15200.0 110921 11.062 77.946 14.377 50.168 0.4322 0.08973 0.1961 8219 3405 5812 -0.4879 -0.1748 -0.3314 28.04
15300.0 110849 11.685 75.422 14.158 49.711 0.3362 0.09371 0.1767 8542 3711 6126 -1.147 0.6101 -0.2682 28.04
15400.0 110782 12.559 70.115 13.724 48.587 0.2977 0.09521 0.1677 7778 3735 5756 -1.284 0.9014 -0.1911 28.04
15500.0 110720 13.492 63.935 13.270 47.153 0.2646 0.09226 0.156 6948 3779 5364 -1.258 0.9973 -0.1302 28.03
15600.0 110658 14.312 59.797 12.796 45.806 0.2414 0.09086 0.1478 6414 3764 5089 -1.238 1.024 -0.1073 28.03
15700.0 110588 14.827 61.087 12.308 44.493 0.2416 0.08955 0.1468 6740 3575 5157 -1.3 0.9958 -0.1523 28.02
15800.0 110521 14.962 62.431 11.813 43.255 0.242 0.08959 0.147 7031 3375 5203 -1.353 0.9566 -0.1983 28.02
15900.0 110452 14.667 63.795 11.317 42.032 0.242 0.08963 0.147 7339 3186 5262 -1.408 0.9179 -0.2452 28.02
16000.0 110398 13.926 65.174 10.827 40.829 0.242 0.08968 0.147 7657 3005 5331 -1.463 0.8794 -0.2917 28.02
16100.0 110347 12.745 66.567 10.337 39.638 0.242 0.08973 0.1471 7986 2832 5409 -1.516 0.8407 -0.3378 28.02
16200.0 110278 11.182 65.270 9.852 38.413 0.2315 0.08921 0.1432 7885 2731 5308 -1.527 0.8248 -0.3509 28.02
16300.0 110215 9.113 66.610 9.360 37.261 0.2313 0.08924 0.1432 8213 2570 5392 -1.578 0.7857 -0.3963 28.02
16400.0 110157 6.603 67.956 8.868 36.132 0.2311 0.08928 0.1432 8550 2417 5484 -1.628 0.7465 -0.4409 28.03
16500.0 110096 3.677 69.337 8.373 35.185 0.2353 0.09078 0.1456 8752 2254 5503 -1.645 0.6926 -0.476 28.03
16600.0 110010 3.543 73.898 7.874 33.947 0.2379 0.08937 0.1453 9966 2103 6034 -1.445 0.6577 -0.3937 28.03
16700.0 109895 6.346 74.611 7.383 32.906 0.2365 0.08941 0.1449 1.019e+04 1982 6085 -1.471 0.621 -0.4252 28.04
16800.0 109725 8.787 75.265 6.899 31.896 0.235 0.08945 0.1445 1.04e+04 1868 6135 -1.494 0.5843 -0.4549 28.04
16900.0 109448 10.941 75.796 6.420 30.930 0.2332 0.08951 0.144 1.059e+04 1763 6176 -1.509 0.5479 -0.4808 28.04
17000.0 109117 12.733 76.279 5.944 30.006 0.2313 0.08958 0.1434 1.077e+04 1666 6215 -1.521 0.5113 -0.5049 28.05
17100.0 108637 14.310 76.608 5.472 29.135 0.229 0.08971 0.1428 1.09e+04 1577 6241 -1.525 0.4753 -0.5248 28.05
17200.0 107982 15.647 76.903 5.003 28.316 0.2268 0.08985 0.1423 1.103e+04 1496 6265 -1.522 0.4391 -0.5414 28.05
17300.0 107115 16.810 77.302 4.539 27.553 0.2252 0.09005 0.1419 1.117e+04 1420 6297 -1.515 0.4024 -0.5565 28.04
17400.0 105984 17.855 77.589 4.074 26.854 0.2239 0.0903 0.1417 1.127e+04 1350 6310 -1.518 0.3653 -0.5765 28.04
17500.0 105291 17.988 78.228 3.577 26.179 0.2239 0.09044 0.1418 1.144e+04 1281 6361 -1.576 0.3268 -0.6244 28.01
17600.0 105236 17.108 79.330 3.066 25.547 0.223 0.09047 0.1415 1.178e+04 1222 6500 -1.592 0.2893 -0.6512 28
17700.0 105176 16.183 80.428 2.556 24.982 0.2226 0.09051 0.1414 1.211e+04 1169 6641 -1.619 0.2501 -0.6847 27.99
17800.0 102432 18.485 80.067 2.085 24.542 0.219 0.09103 0.1407 1.206e+04 1133 6596 -1.581 0.2138 -0.6836 27.96
17900.0 101100 19.088 80.577 1.580 24.143 0.2175 0.0913 0.1404 1.223e+04 1098 6664 -1.587 0.174 -0.7066 27.95
18000.0 101049 18.236 81.660 1.054 23.810 0.2176 0.09134 0.1405 1.256e+04 1068 6812 -1.627 0.1324 -0.7475 27.95
18100.0 100986 17.399 82.740 0.528 23.569 0.2176 0.09138 0.1405 1.289e+04 1046 6967 -1.667 0.09098 -0.7878 27.95
18200.0 100656 16.984 83.039 0.001 23.417 0.2151 0.09147 0.1397 1.305e+04 1038 7045 -1.679 0.0502 -0.8144 27.95
18300.0 100266 16.632 83.856 -0.531 23.368 0.2147 0.0916 0.1397 1.331e+04 1034 7172 -1.708 0.008698 -0.8495 27.94
18400.0 100165 15.855 84.939 -1.066 23.406 0.2147 0.09164 0.1397 1.365e+04 1037 7345 -1.747 -0.03306 -0.8899 27.94
18500.0 99711 15.535 85.835 -1.602 23.540 0.2136 0.09176 0.1395 1.397e+04 1051 7509 -1.768 -0.07477 -0.9213 27.94
18600.0 98246 16.513 86.271 -2.165 23.767 0.2119 0.09207 0.1391 1.414e+04 1073 7605 -1.762 -0.1176 -0.9396 27.93
18700.0 96304 18.067 86.597 -2.763 24.098 0.2103 0.09244 0.1389 1.426e+04 1104 7683 -1.754 -0.161 -0.9575 27.91
18800.0 94222 19.743 87.008 -3.370 24.519 0.209 0.09277 0.1387 1.441e+04 1144 7777 -1.749 -0.2056 -0.9771 27.9
18900.0 92010 21.603 87.482 -4.016 25.022 0.2079 0.09307 0.1385 1.457e+04 1192 7884 -1.745 -0.2503 -0.9977 27.88
19000.0 89554 23.672 88.040 -4.647 25.627 0.2078 0.09339 0.1387 1.473e+04 1248 7991 -1.754 -0.294 -1.024 27.86
19100.0 87734 24.856 88.855 -5.270 26.277 0.2185 0.09342 0.1423 1.462e+04 1279 7950 -1.76 -0.3122 -1.036 27.85
19200.0 84968 21.784 90.998 -5.750 26.895 0.3902 0.09423 0.1913 1.14e+04 996.2 6200 -1.547 -0.226 -0.8868 27.86
19300.0 76524 15.568 94.510 -6.348 27.642 0.724 0.09619 0.2632 8921 763.1 4842 -2.152 -0.2213 -1.187 27.86
19400.0 70937 22.022 98.886 -6.999 28.514 1.377 0.09684 0.3639 7064 587.4 3826 -2.754 -0.1879 -1.471 27.84
19500.0 69420 20.551 104.131 -7.577 29.193 2.218 0.09685 0.462 6133 482.1 3308 -3.619 -0.161 -1.89 27.84
19600.0 68883 15.667 110.745 -8.157 30.242 2.565 0.09798 0.4994 6204 462.6 3333 -5.262 -0.1652 -2.714 27.84
19700.0 68618 37.031 125.406 -8.635 31.143 3.391 0.09872 0.5764 6973 430.1 3702 -6.897 -0.1554 -3.526 27.84
19800.0 68353 51.761 142.973 -9.115 32.167 4.173 0.09977 0.6428 8168 413.4 4291 -9.285 -0.1517 -4.718 27.84
19900.0 68159 66.940 180.964 -9.618 33.318 4.774 0.09978 0.6875 1.203e+04 407.9 6220 -13.26 -0.1443 -6.7 27.84
20000.0 68004 83.620 209.662 -10.069 34.326 5.276 0.09682 0.7126 1.561e+04 418.5 8016 -16.9 -0.127 -8.515 27.84
20100.0 67894 96.875 240.416 -10.522 35.296 5.498 0.09964 0.738 1.982e+04 427.2 1.012e+04 -19.74 -0.1253 -9.932 27.84
20200.0 67853 109.071 271.994 -11.027 36.367 5.598 0.101 0.7498 2.497e+04 446.4 1.271e+04 -22.46 -0.1307 -11.29 27.84
20300.0 67807 121.041 303.984 -11.530 37.468 5.673 0.1013 0.756 3.093e+04 469.9 1.57e+04 -25.19 -0.1374 -12.66 27.84
20400.0 67774 132.979 336.280 -12.033 38.598 5.742 0.1015 0.7613 3.759e+04 495.2 1.904e+04 -27.89 -0.1441 -14.02 27.84
20500.0 67736 144.839 368.711 -12.528 39.753 5.808 0.1017 0.7662 4.49e+04 521.9 2.271e+04 -30.55 -0.1507 -15.35 27.84
20600.0 67687 156.714 401.301 -13.022 40.937 5.874 0.1019 0.7712 5.285e+04 549.9 2.67e+04 -33.17 -0.1574 -16.67 27.84
20700.0 67646 168.638 434.029 -13.505 42.034 5.936 0.1015 0.7737 6.162e+04 577.9 3.11e+04 -35.89 -0.1643 -18.02 27.84
20800.0 67598 180.414 466.715 -13.997 43.256 6.002 0.1017 0.7785 7.081e+04 608.2 3.571e+04 -38.44 -0.1705 -19.31 27.84
20900.0 67502 192.490 499.641 -14.437 44.414 6.073 0.1016 0.7827 8.072e+04 637.8 4.068e+04 -41.03 -0.1747 -20.6 27.84
21000.0 67420 204.496 532.614 -14.866 45.576 6.148 0.1011 0.7858 9.136e+04 668.9 4.601e+04 -43.68 -0.1698 -21.92 27.84
21100.0 67154 217.269 566.204 -15.081 46.426 6.278 0.1008 0.7929 1.023e+05 687.9 5.15e+04 -46.28 -0.126 -23.2 27.85
21200.0 66896 229.783 599.981 -15.102 46.801 6.622 0.1162 0.87 1.047e+05 637 5.266e+04 -45.15 -0.0158 -22.59 27.85
21300.0 66587 242.281 634.378 -14.815 46.303 7.408 0.1623 1.078 9.439e+04 502.9 4.745e+04 -39.09 0.09281 -19.5 27.85
21400.0 66240 254.475 669.376 -14.195 44.905 8.638 0.2213 1.353 8.362e+04 376.3 4.2e+04 -33.39 0.1466 -16.62 27.86
21500.0 65978 265.803 704.570 -13.365 42.877 9.851 0.2671 1.585 7.901e+04 292.6 3.965e+04 -30.39 0.1554 -15.12 27.86
21600.0 65811 276.314 739.576 -12.515 40.739 9.826 0.27 1.592 8.669e+04 263 4.348e+04 -31.77 0.137 -15.82 27.86
21700.0 65667 287.528 774.356 -11.806 39.118 7.892 0.2237 1.302 1.164e+05 297 5.835e+04 -39.93 0.1017 -19.91 27.86
21800.0 65565 299.805 808.219 -11.437 38.399 6.209 0.162 0.9899 1.67e+05 377 8.369e+04 -53.06 0.03725 -26.51 27.87
21900.0 65498 313.299 840.931 -11.420 38.590 7.943 0.125 0.9909 1.807e+05 380.5 9.053e+04 -53.2 -0.04998 -26.62 27.87
22000.0 65445 328.273 872.807 -11.709 39.552 11.13 0.1329 1.208 1.596e+05 327.7 7.996e+04 -44.02 -0.09896 -22.06 27.87
22100.0 65412 344.018 904.075 -12.192 40.995 12.59 0.1462 1.344 1.539e+05 316.4 7.709e+04 -40.58 -0.1146 -20.35 27.87
22200.0 65369 360.019 935.439 -12.686 42.507 12.03 0.1396 1.285 1.723e+05 355.7 8.631e+04 -44.17 -0.1158 -22.14 27.87
22300.0 65312 375.777 967.126 -13.076 43.821 10.73 0.1266 1.158 2.043e+05 419.5 1.024e+05 -51.24 -0.1049 -25.67 27.87
22400.0 65261 391.116 999.189 -13.328 44.826 9.448 0.1209 1.063 2.377e+05 478.5 1.191e+05 -58.35 -0.08164 -29.22 27.87
22500.0 65200 405.810 1031.322 -13.431 45.520 8.548 0.1248 1.025 2.626e+05 511.6 1.316e+05 -62.99 -0.05577 -31.52 27.87
22600.0 65153 420.251 1063.693 -13.475 46.043 8.179 0.13 1.022 2.804e+05 525.4 1.405e+05 -65.5 -0.04278 -32.77 27.87
22700.0 64940 436.013 1097.047 -13.512 46.557 8.109 0.1315 1.023 2.979e+05 536.6 1.492e+05 -67.65 -0.04179 -33.85 27.87
22800.0 64905 450.098 1129.352 -13.521 47.042 8.13 0.1321 1.026 3.146e+05 545.9 1.576e+05 -69.42 -0.04434 -34.73 27.87
22900.0 64866 464.342 1161.814 -13.535 47.540 8.167 0.1324 1.03 3.318e+05 555.6 1.662e+05 -71.19 -0.04755 -35.62 27.87
23000.0 64830 478.585 1194.304 -13.542 48.067 8.205 0.1327 1.034 3.495e+05 566 1.75e+05 -72.95 -0.05084 -36.5 27.87
23100.0 64804 492.766 1226.734 -13.557 48.612 8.245 0.133 1.037 3.674e+05 577 1.84e+05 -74.69 -0.0541 -37.37 27.87
23200.0 64764 506.690 1258.931 -13.556 49.176 8.284 0.1333 1.041 3.857e+05 588.5 1.931e+05 -76.39 -0.05733 -38.23 27.87
23300.0 64721 520.915 1291.413 -13.559 49.784 8.325 0.1336 1.044 4.044e+05 601 2.025e+05 -78.1 -0.0606 -39.08 27.87
23400.0 64687 534.984 1323.737 -13.564 50.405 8.365 0.1339 1.048 4.234e+05 614 2.12e+05 -79.78 -0.06381 -39.92 27.87
23500.0 64657 549.233 1356.257 -13.569 51.056 8.406 0.1342 1.052 4.429e+05 627.6 2.218e+05 -81.46 -0.06703 -40.76 27.87
23600.0 64620 563.379 1388.674 -13.580 51.721 8.447 0.1345 1.055 4.627e+05 641.8 2.317e+05 -83.12 -0.07019 -41.59 27.87
23700.0 64577 577.202 1420.797 -13.581 52.401 8.486 0.1348 1.059 4.827e+05 656.6 2.417e+05 -84.74 -0.07331 -42.4 27.87
23800.0 64543 591.111 1453.015 -13.584 53.098 8.527 0.1351 1.063 5.031e+05 671.8 2.519e+05 -86.35 -0.07641 -43.21 27.87
23900.0 64504 605.189 1485.380 -13.593 53.832 8.569 0.1354 1.067 5.238e+05 688 2.623e+05 -87.96 -0.07953 -44.02 27.87
24000.0 64459 619.235 1517.723 -13.607 54.572 8.612 0.1357 1.07 5.45e+05 704.6 2.728e+05 -89.55 -0.0826 -44.82 27.87
24100.0 64409 633.535 1550.296 -13.606 55.325 8.655 0.136 1.074 5.666e+05 721.5 2.836e+05 -91.16 -0.08563 -45.63 27.87
24200.0 64361 647.643 1582.727 -13.605 56.082 8.698 0.1363 1.078 5.885e+05 738.9 2.946e+05 -92.76 -0.08862 -46.42 27.87
24300.0 64331 661.935 1615.308 -13.610 56.880 8.741 0.1366 1.082 6.108e+05 757.3 3.058e+05 -94.34 -0.09164 -47.22 27.87
24400.0 64290 676.481 1648.118 -13.619 57.693 8.786 0.1369 1.086 6.335e+05 776.2 3.171e+05 -95.93 -0.09464 -48.01 27.87
24500.0 64251 690.958 1680.876 -13.623 58.524 8.831 0.1373 1.09 6.565e+05 795.8 3.286e+05 -97.49 -0.09762 -48.8 27.87
24600.0 64191 705.467 1713.662 -13.610 59.348 8.878 0.1375 1.094 6.799e+05 815.4 3.403e+05 -99.06 -0.1005 -49.58 27.87
24700.0 64144 719.695 1746.179 -13.610 60.189 8.923 0.1378 1.098 7.034e+05 835.7 3.521e+05 -100.6 -0.1033 -50.35 27.87
24800.0 64070 733.866 1778.626 -13.616 61.036 8.969 0.1381 1.102 7.272e+05 856.4 3.64e+05 -102.1 -0.1062 -51.1 27.87
24900.0 63996 748.610 1811.631 -13.629 61.895 9.017 0.1383 1.106 7.518e+05 877.5 3.763e+05 -103.7 -0.109 -51.88 27.87
25000.0 63924 762.759 1844.041 -13.616 62.746 9.062 0.1386 1.11 7.762e+05 898.6 3.885e+05 -105.1 -0.112 -52.62 27.87
25100.0 63827 777.263 1876.552 -13.653 63.549 8.977 0.1391 1.106 8.062e+05 924.6 4.036e+05 -107.3 -0.1171 -53.71 27.87
25200.0 63731 792.277 1909.388 -13.682 64.422 8.832 0.1427 1.112 8.306e+05 945.5 4.157e+05 -108.5 -0.1315 -54.31 27.87
25300.0 63499 809.443 1943.779 -13.793 65.372 9.367 0.177 1.271 7.528e+05 851.5 3.769e+05 -96 -0.1628 -48.08 27.87
25400.0 63352 826.448 1977.429 -14.037 67.004 14.06 0.3213 2.082 4.753e+05 545.7 2.379e+05 -58.63 -0.1723 -29.4 27.87
25500.0 63208 844.407 2010.351 -14.558 69.672 22.91 0.5662 3.517 2.903e+05 348.7 1.453e+05 -34.52 -0.172 -17.35 27.87
25600.0 63083 863.228 2042.596 -15.402 73.736 32.2 0.8481 5.099 2.062e+05 268.8 1.033e+05 -23.72 -0.1842 -11.95 27.87
25700.0 62998 882.595 2074.090 -16.606 79.334 38.52 1.072 6.266 1.726e+05 252.6 8.644e+04 -19.36 -0.2082 -9.786 27.87
25800.0 62929 902.021 2105.349 -17.926 85.874 38.74 1.032 6.166 1.808e+05 300.8 9.054e+04 -20 -0.2308 -10.12 27.87
25900.0 62800 921.638 2137.316 -18.905 91.106 33.57 0.5896 4.34 2.655e+05 482.3 1.33e+05 -29.17 -0.221 -14.7 27.87
26000.0 62693 940.624 2169.428 -19.264 93.132 27.69 0.1621 2.071 5.742e+05 1058 2.876e+05 -62.77 -0.02595 -31.4 27.87
26100.0 62651 958.132 2200.737 -18.866 91.493 24.11 0.8591 4.43 2.76e+05 477.1 1.382e+05 -29.97 0.1956 -14.89 27.87
26200.0 62605 975.405 2232.116 -17.752 86.612 23.44 1.404 5.587 2.245e+05 338.1 1.124e+05 -24.16 0.2479 -11.95 27.87
26300.0 62570 992.783 2263.643 -16.241 80.331 23.82 1.587 5.989 2.152e+05 271 1.077e+05 -22.86 0.2236 -11.32 27.87
26400.0 62530 1009.773 2294.926 -14.702 74.633 23.23 1.498 5.745 2.307e+05 244 1.155e+05 -24.19 0.1769 -12.01 27.87
26500.0 62496 1026.838 2326.467 -13.311 70.282 21.69 1.335 5.239 2.603e+05 237.6 1.303e+05 -26.99 0.1337 -13.43 27.87
26600.0 62457 1043.444 2357.907 -12.058 67.331 19.87 1.195 4.744 2.956e+05 241 1.479e+05 -30.35 0.09721 -15.13 27.87
26700.0 62421 1060.448 2390.078 -10.959 65.362 18.38 1.102 4.382 3.29e+05 246.1 1.646e+05 -33.48 0.06704 -16.71 27.87
26800.0 62382 1076.549 2421.735 -9.906 64.161 17.63 1.067 4.224 3.505e+05 246 1.754e+05 -35.29 0.04034 -17.63 27.87
26900.0 62358 1092.777 2453.682 -8.876 63.646 17.46 1.063 4.195 3.623e+05 243.8 1.813e+05 -36.04 0.01481 -18.01 27.87
27000.0 59149 1163.447 2539.678 -8.333 65.411 17.63 1.091 4.275 3.807e+05 252.6 1.905e+05 -37.53 -0.01114 -18.77 27.92
27100.0 44879 1536.700 2860.971 -10.252 75.545 18.39 1.26 4.7 4.364e+05 304.2 2.183e+05 -43.28 -0.03686 -21.66 28.1
27200.0 42848 1628.583 2945.681 -9.721 78.545 20.06 1.279 4.951 4.373e+05 310.9 2.188e+05 -43.15 -0.05576 -21.6 28.06
27300.0 42623 1656.618 2987.505 -8.646 80.512 20.36 1.282 4.994 4.457e+05 323.7 2.23e+05 -43.46 -0.07629 -21.77 28.06
27400.0 26329 2643.948 3449.742 -17.396 100.635 68.72 2.123 11.88 2.285e+05 194.4 1.143e+05 -24.24 -0.0289 -12.13 26.87
27500.0 17727 2941.360 3532.673 -18.472 106.676 63.2 1.878 10.73 1.668e+05 152.1 8.348e+04 -28.07 -0.04828 -14.06 18.31
27600.0 12467 1156.523 2629.650 -6.927 83.857 53.84 1.527 8.847 9.526e+04 96.87 4.768e+04 -18.74 -0.1099 -9.426 14.41
27700.0 10487 49.092 539.219 3.168 73.585 11.35 0.7273 2.862 1.102e+04 205.2 5613 -3.038 -0.5413 -1.79 12.02
27800.0 10323 34.065 407.641 3.739 93.732 7.985 0.7901 2.509 7195 380.4 3788 -2.41 -0.7986 -1.604 11.99
27900.0 9051 63.715 437.988 4.390 114.521 7.15 0.9222 2.565 8200 560.6 4380 -2.46 -0.9413 -1.7 12.04
28000.0 5625 155.193 548.713 4.652 141.032 7.131 1.143 2.851 1.141e+04 753.9 6083 -2.827 -1.044 -1.935 11.95
28100.0 2837 311.948 756.895 4.010 177.259 9.278 1.513 3.74 1.594e+04 874.4 8409 -3.49 -0.997 -2.244 11.79
28200.0 1442 534.965 1031.312 0.934 210.879 13.12 1.685 4.693 2.279e+04 952.7 1.187e+04 -4.673 -0.948 -2.811 11.73
28300.0 793 844.301 1338.322 -2.819 246.277 19.45 1.996 6.209 2.882e+04 975.9 1.49e+04 -5.642 -0.8009 -3.222 12
28400.0 509 1192.218 1597.996 3.189 266.288 24.54 1.997 6.973 3.851e+04 1069 1.979e+04 -6.874 -0.7133 -3.794 12.85
28500.0 358 1581.466 1805.540 2.797 291.426 29.98 2.107 7.902 4.606e+04 1200 2.363e+04 -7.567 -0.6683 -4.118 13.82
28600.0 266 2008.968 1962.468 -3.217 286.699 34.84 1.882 8.035 5.791e+04 1236 2.957e+04 -8.659 -0.5649 -4.612 15.02
28700.0 215 2401.818 2043.824 -16.593 291.254 37.94 1.778 8.085 6.705e+04 1362 3.421e+04 -9.272 -0.5299 -4.901 16.16
28800.0 187 2715.510 2073.160 -11.856 283.599 38.93 1.505 7.487 7.865e+04 1472 4.006e+04 -10.32 -0.4987 -5.41 17.05
28900.0 159 3116.832 2065.507 -9.634 292.590 38.45 1.432 7.25 8.779e+04 1762 4.478e+04 -10.21 -0.4947 -5.354 18.56
29000.0 133 3390.194 1987.969 -8.983 286.856 38.02 1.324 6.978 8.905e+04 1854 4.545e+04 -9.713 -0.4709 -5.092 19.52
29100.0 117 3445.157 1927.828 -15.027 292.197 38.09 1.28 6.889 8.577e+04 1970 4.387e+04 -9.193 -0.4762 -4.835 19.7
